@startuml
class RecipeRepository{
+{method} get_all()
+{method} get_by_id()
+{method} create()
+{method} update()
+{method} delete()
}
class FavoriteRecipeRepository{
+{method} get_all()
+{method} get_by_id()
+{method} create()
+{method} update()
+{method} delete()
}

class AbstractRepository{
-{method} get_all()
-{method} get_by_id()
-{method} create()
-{method} update()
-{method} delete()
}

AbstractRepository<|-- RecipeRepository
AbstractRepository<|-- FavoriteRecipeRepository
@enduml